R4DS读书笔记（第三章、使用dplyr进行数据转换） | 余果的博客
…
arrange(df, desc(x))
#> # A tibble: 3 × 1
#> x
#> 
#> 1 5
#> 2 2
#> 3 NA

使用select（）选择列
通过基于变量名的操作，select() 函数可以让你 快速生成一个有用的变量子集。

# 按名称选择列
dplyr::select(nycflights13::flights, year, month, day)
# A tibble: 336,776 × 3
    year month   day
     
 1  2013     1     1
 2  2013     1     1
 3  2013     1     1
 4  2013     1     1
 5  2013     1     1
 6  2013     1     1
 7  2013     1     1
 8  2013     1     1
 9  2013     1     1
10  2013     1     1
# … with 336,766 more rows

# 选择“year”和“day”之间的所有列（包括“year”和“day”）
dplyr::select(nycflights13::flights, year:day)
# A tibble: 336,776 × 3
    year month   day
     
 1  2013     1     1
 2  2013     1     1
 3  2013     1     1
 4  2013     1     1
 5  2013     1     1
 6  2013     1     1
 7  2013     1     1
 8  2013     1     1
 9  2013     1     1
10  2013     1     1
# … with 336,766 more rows

# 选择不在“year”和“day”之间的所有列（不包括“year”和“day”）
dplyr::select(nycflights13::flights, -(year:day))
# A tibble: 336,776 × 16
   dep_time sched_dep_time dep_delay arr_time sched_arr_time arr_delay carrier flight tail_num origin dest  air_time distance  hour minute time_hour          
                                                                            
 1      517            515         2      830            819        11 UA        1545 N14228  EWR    IAH        227     1400     5     15 2013-01-01 05:00:00
 2      533            529         4      850            830        20 UA        1714 N24211  LGA    IAH        227     1416     5     29 2013-01-01 05:00:00
 3      542            540         2      923            850        33 AA        1141 N619AA  JFK    MIA        160     1089     5     40 2013-01-01 05:00:00
 4      544            545        -1     1004           1022       -18 B6         725 N804JB  JFK    BQN        183     1576     5     45 2013-01-01 05:00:00
 5      554            600        -6      812            837       -25 DL         461 N668DN  LGA    ATL        116      762     6      0 2013-01-01 06:00:00
 6      554            558        -4      740            728        12 UA        1696 N39463  EWR    ORD        150      719     5     58 2013-01-01 05:00:00
 7      555            600        -5      913            854        19 B6         507 N516JB  EWR    FLL        158     1065     6      0 2013-01-01 06:00:00
 8      557            600        -3      709            723       -14 EV        5708 N829AS  LGA    IAD         53      229     6      0 2013-01-01 06:00:00
 9      557            600        -3      838            846        -8 B6          79 N593JB  JFK    MCO        140      944     6      0 2013-01-01 06:00:00
10      558            600        -2      753            745         8 AA         301 N3ALAA  LGA    ORD        138      733     6      0 2013-01-01 06:00:00
# … with 336,766 more rows
…
starts_with(“abc”)：匹配以“abc”开头的名称。 

ends_with(“xyz”)：匹配以“xyz”结尾的名称。

contains(“ijk”)：匹配包含“ijk”的名称。 

matches(“(.)\1”)：选择匹配正则表达式的那些变量。这个正则表达式会匹配名称中有重复字符的变量。后面会介绍正则表达式的知识。 

num_range(“x”, 1:3)：匹配 x1、x2 和 x3。

举个栗子：

dplyr::select(nycflights13::flights,contains("time"))
# A tibble: 336,776 × 6
   dep_time sched_dep_time arr_time sched_arr_time air_time time_hour          
                                                
 1      517            515      830            819      227 2013-01-01 05:00:00
 2      533            529      850            830      227 2013-01-01 05:00:00
 3      542            540      923            850      160 2013-01-01 05:00:00
 4      544            545     1004           1022      183 2013-01-01 05:00:00
 5      554            600      812            837      116 2013-01-01 06:00:00
 6      554            558      740            728      150 2013-01-01 05:00:00
 7      555            600      913            854      158 2013-01-01 06:00:00
 8      557            600      709            723       53 2013-01-01 06:00:00
 9      557            600      838            846      140 2013-01-01 06:00:00
10      558            600      753            745      138 2013-01-01 06:00:00
# … with 336,766 more rows

select() 可以重命名变量，但尽量避免这样做，因为这样会丢掉所有未明确提及的变量。我们应该使用 select() 函数的变体 rename() 函数来重命名变量，以保留所有未明确提及的变量：

dplyr::rename(nycflights13::flights, tail_num = tailnum)

另一种用法是将 select() 函数和 everything() 辅助函数结合起来使用。当想要将几个变量移到数据框开头时，这种用法非常奏效：

dplyr::select(nycflights13::flights, time_hour, air_time, everything())
# A tibble: 336,776 × 19
   time_hour           air_time  year month   day dep_time sched_dep_time dep_delay arr_time sched_arr_time arr_delay carrier flight tailnum origin dest  distance  hour
                                                                             
 1 2013-01-01 05:00:00      227  2013     1     1      517            515         2      830            819        11 UA        1545 N14228  EWR    IAH       1400     5
 2 2013-01-01 05:00:00      227  2013     1     1      533            529         4      850            830        20 UA        1714 N24211  LGA    IAH       1416     5
 3 2013-01-01 05:00:00      160  2013     1     1      542            540         2      923            850        33 AA        1141 N619AA  JFK    MIA       1089     5
 4 2013-01-01 05:00:00      183  2013     1     1      544            545        -1     1004           1022       -18 B6         725 N804JB  JFK    BQN       1576     5
 5 2013-01-01 06:00:00      116  2013     1     1      554            600        -6      812            837       -25 DL         461 N668DN  LGA    ATL        762     6
 6 2013-01-01 05:00:00      150  2013     1     1      554            558        -4      740            728        12 UA        1696 N39463  EWR    ORD        719     5
 7 2013-01-01 06:00:00      158  2013     1     1      555            600        -5      913            854        19 B6         507 N516JB  EWR    FLL       1065     6
 8 2013-01-01 06:00:00       53  2013     1     1      557            600        -3      709            723       -14 EV        5708 N829AS  LGA    IAD        229     6
 9 2013-01-01 06:00:00      140  2013     1     1      557            600        -3      838            846        -8 B6          79 N593JB  JFK    MCO        944     6
10 2013-01-01 06:00:00      138  2013     1     1      558            600        -2      753            745         8 AA         301 N3ALAA  LGA    ORD        733     6
# … with 336,766 more rows, and 1 more variable: minute 
…
mutate() 总是将新列添加在数据集的最后，因此我们需要先创建一个更狭窄的数据集，以便能够看到新变量。当使用 RStudio 时，查看所有列的最简单的方法就是使用 View() 函数：

#首先抽取出一个更小的数据集flights_sml，该数据集由year到day列，以“delay”结束的列、distance列、air_time列组成
flights_sml <- dplyr::select(nycflights13::flights,
 year:day,
 ends_with("delay"),
 distance,
 air_time
)
dplyr::mutate(flights_sml,
 gain = arr_delay - dep_delay,
 speed = distance / air_time * 60
)
# 使用mutate（）新增gain和speed两列
# A tibble: 336,776 × 9
    year month   day dep_delay arr_delay distance air_time  gain speed
                         
 1  2013     1     1         2        11     1400      227     9  370.
 2  2013     1     1         4        20     1416      227    16  374.
 3  2013     1     1         2        33     1089      160    31  408.
 4  2013     1     1        -1       -18     1576      183   -17  517.
 5  2013     1     1        -6       -25      762      116   -19  394.
 6  2013     1     1        -4        12      719      150    16  288.
 7  2013     1     1        -5        19     1065      158    24  404.
 8  2013     1     1        -3       -14      229       53   -11  259.
 9  2013     1     1        -3        -8      944      140    -5  405.
10  2013     1     1        -2         8      733      138    10  319.
# … with 336,766 more rows

一旦创建，新列就可以立即使用：

dplyr::mutate(flights_sml,
 gain = arr_delay - dep_delay,
 hours = air_time / 60,
 gain_per_hour = gain / hours
)
# A tibble: 336,776 × 10
    year month   day dep_delay arr_delay distance air_time  gain hours gain_per_hour
                                  
 1  2013     1     1         2        11     1400      227     9 3.78           2.38
 2  2013     1     1         4        20     1416      227    16 3.78           4.23
 3  2013     1     1         2        33     1089      160    31 2.67          11.6 
 4  2013     1     1        -1       -18     1576      183   -17 3.05          -5.57
 5  2013     1     1        -6       -25      762      116   -19 1.93          -9.83
 6  2013     1     1        -4        12      719      150    16 2.5            6.4 
 7  2013     1     1        -5        19     1065      158    24 2.63           9.11
 8  2013     1     1        -3       -14      229       53   -11 0.883        -12.5 
 9  2013     1     1        -3        -8      944      140    -5 2.33          -2.14
10  2013     1     1        -2         8      733      138    10 2.3            4.35
# … with 336,766 more rows

如果只想保留新变量，可以使用 transmute() 函数：

dplyr::transmute(nycflights13::flights,
 gain = arr_delay - dep_delay,
 hours = air_time / 60,
 gain_per_hour = gain / hours
)
# A tibble: 336,776 × 3
    gain hours gain_per_hour
             
 1     9 3.78           2.38
 2    16 3.78           4.23
 3    31 2.67          11.6 
 4   -17 3.05          -5.57
 5   -19 1.93          -9.83
 6    16 2.5            6.4 
 7    24 2.63           9.11
 8   -11 0.883        -12.5 
 9    -5 2.33          -2.14
10    10 2.3            4.35
# … with 336,766 more rows
…
如果一个参数比另一个参数短，那么前者会自动扩展到同样的长度。当某个参数是单个数值时，这种方式是最有效的：air_ time / 60、hours * 60 + minute 等。

算术运算符的另一用途是与后面将学到的聚集函数结合起来使用。例如，x /  sum(x) 可以计算出各个分量在总数中的比例，y – mean(y) 可以计算出分量与均值之间的差值。

模运算符：%/% 和 %%

%/%（整数除法）和 %%（求余）满足 x == y * (x %/% y) + (x %% y)。模运算非常好用，因为它可以拆分整数。例如，在航班数据集中，你可以根据 dep_time 计算出 hour 和 minute：

dplyr::transmute(nycflights13::flights,
 dep_time,
 hour = dep_time %/% 100,
 minute = dep_time %% 100
)
# A tibble: 336,776 × 3
   dep_time  hour minute
         
 1      517     5     17
 2      533     5     33
 3      542     5     42
 4      544     5     44
 5      554     5     54
 6      554     5     54
 7      555     5     55
 8      557     5     57
 9      557     5     57
10      558     5     58
# … with 336,766 more rows
…
使用summarize()进行分组摘要
最后一个核心函数是 summarize()，它可以将数据框折叠成一行：

dplyr::summarize(nycflights13::flights, delay = mean(dep_delay, na.rm = TRUE))
# A tibble: 1 × 1
  delay
  
1  12.6

如果不与 group_by() 一起使用，那么 summarize() 也就没什么大用。group_by() 可以将分析单位从整个数据集更改为单个分组。接下来，在分组后的数据框上使用 dplyr 函数时， 它们会自动地应用到每个分组。如果对按日期分组的一个数据框应用与上面完全相同的代码，那么我们就可以得到每日平均延误时间：

by_day <- group_by(nycflights13::flights, year, month, day)
dplyr::summarize(by_day, delay = mean(dep_delay, na.rm = TRUE))
# A tibble: 365 × 4
# Groups:   year, month [12]
    year month   day delay
      
 1  2013     1     1 11.5 
 2  2013     1     2 13.9 
 3  2013     1     3 11.0 
 4  2013     1     4  8.95
 5  2013     1     5  5.73
 6  2013     1     6  7.15
 7  2013     1     7  5.42
 8  2013     1     8  2.55
 9  2013     1     9  2.28
10  2013     1    10  2.84
# … with 355 more rows
…
这使得代码具有更好的可读性。你可以将其读作一串命令式语句：分组，然后摘要统计，然后进行筛选。在阅读代码时，%>% 最好读作“然后”。举个栗子：

x %>% f(y) 会转换为 f(x, y)

x %>% f(y) %>% g(z) 会转换为 g(f(x,  y), z)，以此类推。

支持管道操作是 tidyverse 中的 R 包的核心原则之一。唯一的例外就是 ggplot2：它是在发现管道方式前开发的。ggplot2 的下一个版本 ggvis 支持管道操作，遗憾的是其还没有达到成熟完备的程度。

缺失值
前面使用了参数 na.rm，你应该非常想要知道其含义。如果没有设置这个参数，会发生什么情况呢？

flights %>%
 group_by(year, month, day) %>%
 summarize(mean = mean(dep_delay,na.rm=TRUE))
# A tibble: 365 × 4
# Groups:   year, month [12]
    year month   day  mean
      
 1  2013     1     1 11.5 
 2  2013     1     2 13.9 
 3  2013     1     3 11.0 
 4  2013     1     4  8.95
 5  2013     1     5  5.73
 6  2013     1     6  7.15
 7  2013     1     7  5.42
 8  2013     1     8  2.55
 9  2013     1     9  2.28
10  2013     1    10  2.84
# … with 355 more rows

flights %>%
 group_by(year, month, day) %>%
 summarize(mean = mean(dep_delay))
# A tibble: 365 × 4
# Groups:   year, month [12]
    year month   day  mean
      
 1  2013     1     1    NA
 2  2013     1     2    NA
 3  2013     1     3    NA
 4  2013     1     4    NA
 5  2013     1     5    NA
 6  2013     1     6    NA
 7  2013     1     7    NA
 8  2013     1     8    NA
 9  2013     1     9    NA
10  2013     1    10    NA
# … with 355 more rows

我们会得到很多缺失值！这是因为聚合函数遵循缺失值的一般规则：如果输入中有缺失值，那么输出也会是缺失值。好在所有聚合函数都有一个 na.rm 参数，它可以在计算前除去缺失值。

在这个示例中，缺失值表示取消的航班，我们也可以通过先去除取消的航班来解决缺失值 问题。保存这个数据集，以便我们可以在接下来的几个示例中继续使用：

not_cancelled <- flights %>%
 filter(!is.na(dep_delay), !is.na(arr_delay))
not_cancelled %>%
 group_by(year, month, day) %>%
 summarize(mean = mean(dep_delay))
# A tibble: 365 × 4
# Groups:   year, month [12]
    year month   day  mean
      
 1  2013     1     1 11.4 
 2  2013     1     2 13.7 
 3  2013     1     3 10.9 
 4  2013     1     4  8.97
 5  2013     1     5  5.73
 6  2013     1     6  7.15
 7  2013     1     7  5.42
 8  2013     1     8  2.56
 9  2013     1     9  2.30
10  2013     1    10  2.84
# … with 355 more rows
…
这对球员排名也有重要影响。如果只是使用 desc(ba) 进行排序，明显受益的将是具有最好打击率的球员，而不是能力最高的球员：

batters %>%
 arrange(desc(ba))
# A tibble: 20,166 × 3
   playerID     ba    ab
         
 1 abramge01     1     1
 2 alberan01     1     1
 3 banisje01     1     1
 4 bartocl01     1     1
 5 bassdo01      1     1
 6 birasst01     1     2
 7 bruneju01     1     1
 8 burnscb01     1     1
 9 cammaer01     1     1
10 campsh01      1     1
# … with 20,156 more rows
…
位置度量

已经使用过 mean(x)，但 median(x) 也非常有用。均值是总数除以个数；中位数则是这样一个值：50% 的 x 大于它，同时 50% 的 x 小于它。

有时候需要将聚合函数和逻辑筛选组合起来使用。

not_cancelled %>%
 group_by(year, month, day) %>%
 summarize(
 # 平均延误时间：
 avg_delay1 = mean(arr_delay),
 # 平均正延误时间：
 avg_delay2 = mean(arr_delay[arr_delay > 0])
 )
 # A tibble: 365 × 5
# Groups:   year, month [12]
    year month   day avg_delay1 avg_delay2
                 
 1  2013     1     1     12.7         32.5
 2  2013     1     2     12.7         32.0
 3  2013     1     3      5.73        27.7
 4  2013     1     4     -1.93        28.3
 5  2013     1     5     -1.53        22.6
 6  2013     1     6      4.24        24.4
 7  2013     1     7     -4.95        27.8
 8  2013     1     8     -3.23        20.8
 9  2013     1     9     -0.264       25.6
10  2013     1    10     -5.90        27.3
# … with 355 more rows

分散程度度量：sd(x)、IQR(x) 和 mad(x)

均方误差（又称标准误差，standard deviation，sd）是分散程度的标准度量方式。四分位距 IQR() 和绝对中位差 mad(x) 基本等价，更适合有离群点的情况：

# 为什么到某些目的地的距离比到其他目的地更多变？
not_cancelled %>%
 group_by(dest) %>%
 summarize(distance_sd = sd(distance)) %>%
 arrange(desc(distance_sd))
# A tibble: 104 × 2
   dest  distance_sd
          
 1 EGE         10.5 
 2 SAN         10.4 
 3 SFO         10.2 
 4 HNL         10.0 
 5 SEA          9.98
 6 LAS          9.91
 7 PDX          9.87
 8 PHX          9.86
 9 LAX          9.66
10 IND          9.46
# … with 94 more rows

秩的度量：min(x)、quantile(x, 0.25) 和 max(x)

分位数是中位数的扩展。例如，quantile(x, 0.25) 会找出 x 中按从小到大顺序大于前 25% 而小于后 75% 的值：

# 每天最早和最晚的航班何时出发？
not_cancelled %>%
 group_by(year, month, day) %>%
 summarize(
 first = min(dep_time),
 last = max(dep_time)
 )
# A tibble: 365 × 5
# Groups:   year, month [12]
    year month   day first  last
       
 1  2013     1     1   517  2356
 2  2013     1     2    42  2354
 3  2013     1     3    32  2349
 4  2013     1     4    25  2358
 5  2013     1     5    14  2357
 6  2013     1     6    16  2355
 7  2013     1     7    49  2359
 8  2013     1     8   454  2351
 9  2013     1     9     2  2252
10  2013     1    10     3  2320
# … with 355 more rows

定位度量：first(x)、nth(x, 2) 和 last(x)

这几个函数的作用与 x[1]、x[2] 和 x[length(x)] 相同，只是当定位不存在时（比如尝试从只有两个元素的分组中得到第三个元素），前者允许你设置一个默认值。例如，我们可以找出每天最早和最晚出发的航班：

not_cancelled %>%
 group_by(year, month, day) %>%
 summarize(
 first_dep = first(dep_time),
 last_dep = last(dep_time)
 )
# A tibble: 365 × 5
# Groups:   year, month [12]
    year month   day first_dep last_dep
              
 1  2013     1     1       517     2356
 2  2013     1     2        42     2354
 3  2013     1     3        32     2349
 4  2013     1     4        25     2358
 5  2013     1     5        14     2357
 6  2013     1     6        16     2355
 7  2013     1     7        49     2359
 8  2013     1     8       454     2351
 9  2013     1     9         2     2252
10  2013     1    10         3     2320
# … with 355 more rows

这些函数对筛选操作进行了排秩方面的补充。筛选会返回所有变量，每个观测在单独的一行中：

not_cancelled %>%
 group_by(year, month, day) %>%
 mutate(r = min_rank(desc(dep_time))) %>%
 filter(r %in% range(r))
# A tibble: 770 × 20
# Groups:   year, month, day [365]
    year month   day dep_time sched_dep_time dep_delay arr_time sched_arr_time arr_delay carrier flight tailnum origin dest  air_time
                                                          
 1  2013     1     1      517            515         2      830            819        11 UA        1545 N14228  EWR    IAH        227
 2  2013     1     1     2356           2359        -3      425            437       -12 B6         727 N588JB  JFK    BQN        186
 3  2013     1     2       42           2359        43      518            442        36 B6         707 N580JB  JFK    SJU        189
 4  2013     1     2     2354           2359        -5      413            437       -24 B6         727 N789JB  JFK    BQN        180
 5  2013     1     3       32           2359        33      504            442        22 B6         707 N763JB  JFK    SJU        193
 6  2013     1     3     2349           2359       -10      434            445       -11 B6         739 N729JB  JFK    PSE        199
 7  2013     1     4       25           2359        26      505            442        23 B6         707 N554JB  JFK    SJU        194
 8  2013     1     4     2358           2359        -1      429            437        -8 B6         727 N599JB  JFK    BQN        189
 9  2013     1     4     2358           2359        -1      436            445        -9 B6         739 N821JB  JFK    PSE        199
10  2013     1     5       14           2359        15      503            445        18 B6         739 N592JB  JFK    PSE        201
# … with 760 more rows, and 5 more variables: distance , hour , minute , time_hour , r 

计数

你已经见过 n()，它不需要任何参数，并返回当前分组的大小。如果想要计算出非缺失值的数量，可以使用 sum(!is.na(x))。要想计算出唯一值的数量，可以使用 n_ distinct(x)：

# 哪个目的地具有最多的航空公司？
not_cancelled %>%
 group_by(dest) %>%
 summarize(carriers = n_distinct(carrier)) %>%
 arrange(desc(carriers))
# A tibble: 104 × 2
   dest  carriers
       
 1 ATL          7
 2 BOS          7
 3 CLT          7
 4 ORD          7
 5 TPA          7
 6 AUS          6
 7 DCA          6
 8 DTW          6
 9 IAD          6
10 MSP          6
# … with 94 more rows

因为计数太常用了，所以 dplyr 提供了一个简单的辅助函数，用于只需要计数的情况：

not_cancelled %>%
 count(dest)
# A tibble: 104 × 2
   dest      n
    
 1 ABQ     254
 2 ACK     264
 3 ALB     418
 4 ANC       8
 5 ATL   16837
 6 AUS    2411
 7 AVL     261
 8 BDL     412
 9 BGR     358
10 BHM     269
# … with 94 more rows

你还可以选择提供一个加权变量。例如，你可以使用以下代码算出每架飞机飞行的总里程数（实际上就是求和）：

not_cancelled %>%
 count(tailnum, wt = distance)
# A tibble: 4,037 × 2
   tailnum      n
       
 1 D942DN    3418
 2 N0EGMQ  239143
 3 N10156  109664
 4 N102UW   25722
 5 N103US   24619
 6 N104UW   24616
 7 N10575  139903
 8 N105UW   23618
 9 N107US   21677
10 N108UW   32070
# … with 4,027 more rows

逻辑值的计数和比例：sum(x > 10) 和 mean(y == 0)

当与数值型函数一同使用时，TRUE 会转换为 1，FALSE 会转换为 0。这使得 sum() 和 mean() 非常适用于逻辑值：sum(x) 可以找出 x 中 TRUE 的数量，mean(x) 则可以找出比例。

# 多少架航班是在早上5点前出发的？（这通常表明前一天延误的航班数量）
not_cancelled %>%
 group_by(year, month, day) %>%
 summarize(n_early = sum(dep_time < 500))
# A tibble: 365 × 4
# Groups:   year, month [12]
    year month   day n_early
        
 1  2013     1     1       0
 2  2013     1     2       3
 3  2013     1     3       4
 4  2013     1     4       3
 5  2013     1     5       3
 6  2013     1     6       2
 7  2013     1     7       2
 8  2013     1     8       1
 9  2013     1     9       3
10  2013     1    10       3
# … with 355 more rows
…
