R4DS读书笔记（第七章、使用tibble实现简单数据框） | 余果的博客
…
7.1简介
R4DS使用 tibble 代替传统的 R 数据框。tibble 是一种简单数据框，它对传统数据框的功能进 行了一些修改，以便更易于使用。R 是一门古老的语言，其中有些功能在 10 年或 20 年前 是适用的，但现在已经过时。在不破坏现有代码的前提下，很难修改 R 的基础功能，因此 多数革新都是以扩展包的方式出现的。本章会介绍 tibble 包，其所提供的简单数据框更易于 在 tidyverse 中使用。多数情况下，我们会交替使用 tibble 和数据框这两个术语；如果想要 特别强调 R 内置的传统数据框，我们会使用 data.frame 来表示。

 如果读完本章后你还想学习有关 tibble 的更多知识，可以使用 vignette(“tibble”) 命令。

准备工作

library(tidyverse)

7.2 创建tibble
R4DS中使用的所有函数几乎都可以创建 tibble，因为 tibble 是 tidyverse 的标准功能之一。 由于多数其他 R 包使用的是标准数据框，因此你可能想要将标准数据框转换为 tibble。可以使 用 as_tibble() 函数来完成转换：

as_tibble(iris)
# A tibble: 150 × 5
   Sepal.Length Sepal.Width Petal.Length Petal.Width Species
                                   
 1          5.1         3.5          1.4         0.2 setosa 
 2          4.9         3            1.4         0.2 setosa 
 3          4.7         3.2          1.3         0.2 setosa 
 4          4.6         3.1          1.5         0.2 setosa 
 5          5           3.6          1.4         0.2 setosa 
 6          5.4         3.9          1.7         0.4 setosa 
 7          4.6         3.4          1.4         0.3 setosa 
 8          5           3.4          1.5         0.2 setosa 
 9          4.4         2.9          1.4         0.2 setosa 
10          4.9         3.1          1.5         0.1 setosa 
# … with 140 more rows
…
7.3 对比tibble与data.frame
tibble 和传统 data.frame 的使用方法主要有两处不同：打印和取子集。

7.3.1 打印
tibble 的打印方法进行了优化，只显示前 10 行结果，并且列也是适合屏幕的，这种方式非 常适合大数据集。除了打印列名，tibble 还会打印出列的类型，这项非常棒的功能借鉴于 str() 函数。

tibble(
 a = lubridate::now() + runif(1e3) * 86400,
 b = lubridate::today() + runif(1e3) * 30,
 c = 1:1e3,
 d = runif(1e3),
 e = sample(letters, 1e3, replace = TRUE)
)
# A tibble: 1,000 × 5
   a                   b              c     d e    
                        
 1 2022-06-08 10:13:25 2022-07-06     1 0.525 v    
 2 2022-06-08 08:09:51 2022-06-16     2 0.505 h    
 3 2022-06-08 05:40:05 2022-06-16     3 0.658 u    
 4 2022-06-08 01:53:31 2022-06-18     4 0.351 s    
 5 2022-06-08 10:33:04 2022-07-01     5 0.490 t    
 6 2022-06-08 03:52:27 2022-06-08     6 0.475 w    
 7 2022-06-08 10:28:25 2022-07-05     7 0.329 k    
 8 2022-06-08 02:45:12 2022-06-27     8 0.184 z    
 9 2022-06-07 17:48:26 2022-06-24     9 0.302 a    
10 2022-06-08 02:35:37 2022-06-14    10 0.498 f    
# … with 990 more rows

在打印大数据框时，tibble 的这种设计避免了输出占满整个控制台。但有时需要比默认显 示更多的输出，这时就要设置几个选项。

 首先，可以明确使用 print() 函数来打印数据框，并控制打印的行数（n）和显示的宽度 （width）。width = Inf 可以显示出所有列：

nycflights13::flights %>%
 print(n = 10, width = Inf)
# A tibble: 336,776 × 19
    year month   day dep_time sched_dep_time dep_delay arr_time sched_arr_time arr_delay carrier flight tailnum origin dest  air_time
                                                          
 1  2013     1     1      517            515         2      830            819        11 UA        1545 N14228  EWR    IAH        227
 2  2013     1     1      533            529         4      850            830        20 UA        1714 N24211  LGA    IAH        227
 3  2013     1     1      542            540         2      923            850        33 AA        1141 N619AA  JFK    MIA        160
 4  2013     1     1      544            545        -1     1004           1022       -18 B6         725 N804JB  JFK    BQN        183
 5  2013     1     1      554            600        -6      812            837       -25 DL         461 N668DN  LGA    ATL        116
 6  2013     1     1      554            558        -4      740            728        12 UA        1696 N39463  EWR    ORD        150
 7  2013     1     1      555            600        -5      913            854        19 B6         507 N516JB  EWR    FLL        158
 8  2013     1     1      557            600        -3      709            723       -14 EV        5708 N829AS  LGA    IAD         53
 9  2013     1     1      557            600        -3      838            846        -8 B6          79 N593JB  JFK    MCO        140
10  2013     1     1      558            600        -2      753            745         8 AA         301 N3ALAA  LGA    ORD        138
   distance  hour minute time_hour          
                       
 1     1400     5     15 2013-01-01 05:00:00
 2     1416     5     29 2013-01-01 05:00:00
 3     1089     5     40 2013-01-01 05:00:00
 4     1576     5     45 2013-01-01 05:00:00
 5      762     6      0 2013-01-01 06:00:00
 6      719     5     58 2013-01-01 05:00:00
 7     1065     6      0 2013-01-01 06:00:00
 8      229     6      0 2013-01-01 06:00:00
 9      944     6      0 2013-01-01 06:00:00
10      733     6      0 2013-01-01 06:00:00
# … with 336,766 more rows
…
